"Country","Region/State","City","Zip From","Zip To","Package Id","Weight >","Weight <=","Price >","Price <=","Item From","Item To","Customer Group","Shipping Price","Algorithm","Delivery Type","Notes"
"NLD","*","*","*","*",,"*","*","*",100,"*","*","*","19.70","*","Standard shipping","10 € small order fee below 100 €"
"NLD","*","*","*","*",,"*","*",100,"*","*","*","*","9.70","*","Standard shipping",
"NLD","*","*","*","*",,"*","*","*",100,"*","*","*","34.70","*","Express shipping","10 € small order fee below 100 €"
"NLD","*","*","*","*",,"*","*",100,"*","*","*","*","24.70","*","Express shipping",
"ALB,AND,AUT,BLR,BEL,BIH,BGR,HRV,CYP,CZE,DNK,EST,FRO,FIN,FRA,DEU,GIB,GRC,HUN,ISL,IRL,IMN,ITA,LVA,LIE,LTU,LUX,MKD,MLT,MDA,MCO,MNE,NOR,POL,PRT,ROU,RUS,SMR,SRB,SVK,SVN,ESP,SWE,CHE,UKR,GBR,VAT","*","*","*","*",,"*","*","*",100,"*","*","*","30","*","Export shipping","10 € small order fee below 100 €"
"ALB,AND,AUT,BLR,BEL,BIH,BGR,HRV,CYP,CZE,DNK,EST,FRO,FIN,FRA,DEU,GIB,GRC,HUN,ISL,IRL,IMN,ITA,LVA,LIE,LTU,LUX,MKD,MLT,MDA,MCO,MNE,NOR,POL,PRT,ROU,RUS,SMR,SRB,SVK,SVN,ESP,SWE,CHE,UKR,GBR,VAT","*","*","*","*",,"*","*",100,"*","*","*","*","30","*","Export shipping",
